# 0
# 1 The first column is the "real" program; the second is what _should_
# 2 be the symlink, but for now is a copy.
# 3 All paths should be relative to the root directory.  This list
# 4 should be kept sorted.
# 5
# 6 $Id: mklink.data 768 1999-02-15 00:22:11Z gdr $
# 7
usr/sbin/newuser	usr/sbin/newuserv
